\select@language {english}
\contentsline {figure}{\numberline {1}{\ignorespaces Entity Relationship Diagram\relax }}{4}
\contentsline {figure}{\numberline {2}{\ignorespaces Architektur\relax }}{5}
\contentsline {figure}{\numberline {3}{\ignorespaces Der TestCase entspricht dieser grafischen Ausgabe\relax }}{16}
\contentsline {figure}{\numberline {4}{\ignorespaces Auflistung der aktives sowie beendeten Spiele sowie deren Ausgang\relax }}{26}
\contentsline {figure}{\numberline {5}{\ignorespaces Erstellung eines Spiels unter Angabe von Feldgr\IeC {\"o}\IeC {\ss }e und Spielern\relax }}{26}
\contentsline {figure}{\numberline {6}{\ignorespaces Aktives Spiel\relax }}{27}
\contentsline {figure}{\numberline {7}{\ignorespaces Sieg\relax }}{28}
\contentsline {figure}{\numberline {8}{\ignorespaces Untentschieden\relax }}{29}
