\relax 
\providecommand\@newglossary[4]{}
\@newglossary{main}{glg}{gls}{glo}
\providecommand\@glsorder[1]{}
\providecommand\@istfilename[1]{}
\@istfilename{main.ist}
\@glsorder{word}
\select@language{english}
\@writefile{toc}{\select@language{english}}
\@writefile{lof}{\select@language{english}}
\@writefile{lot}{\select@language{english}}
\@writefile{toc}{\contentsline {section}{\numberline {1}UseCase}{3}}
\@writefile{toc}{\contentsline {section}{\numberline {2}DB}{3}}
\@writefile{lol}{\contentsline {listing}{\numberline {1}{\ignorespaces docker-compose.yml\relax }}{3}}
\providecommand*\caption@xref[2]{\@setref\relax\@undefined{#1}}
\newlabel{code:docker-compose.yml}{{1}{3}}
\@writefile{lof}{\contentsline {figure}{\numberline {1}{\ignorespaces Entity Relationship Diagram\relax }}{4}}
\@writefile{lol}{\contentsline {listing}{\numberline {2}{\ignorespaces DDL Statements\relax }}{4}}
\newlabel{code:creates}{{2}{4}}
\@writefile{toc}{\contentsline {section}{\numberline {3}Backend}{5}}
\@writefile{lof}{\contentsline {figure}{\numberline {2}{\ignorespaces Architektur\relax }}{5}}
\@writefile{toc}{\contentsline {subsection}{\numberline {3.1}JVM (Kotlin + Java)}{6}}
\@writefile{lol}{\contentsline {listing}{\numberline {3}{\ignorespaces Gradle Build File\relax }}{6}}
\newlabel{code:build.gradle}{{3}{6}}
\@writefile{lol}{\contentsline {listing}{\numberline {4}{\ignorespaces Spring applicatiion.yml\relax }}{7}}
\newlabel{code:application.yml}{{4}{7}}
\@writefile{toc}{\contentsline {subsubsection}{\numberline {3.1.1}Entities}{7}}
\@writefile{lol}{\contentsline {listing}{\numberline {5}{\ignorespaces JPA-Entities\relax }}{7}}
\newlabel{code:entities}{{5}{7}}
\@writefile{toc}{\contentsline {subsubsection}{\numberline {3.1.2}Repos}{8}}
\@writefile{lol}{\contentsline {listing}{\numberline {6}{\ignorespaces SpringData-Repositories\relax }}{8}}
\newlabel{code:springrepos}{{6}{8}}
\@writefile{toc}{\contentsline {subsubsection}{\numberline {3.1.3}Auditing - Hibernate Envers}{9}}
\@writefile{lol}{\contentsline {listing}{\numberline {7}{\ignorespaces Aktivieren der Auditing-Funktionalit\IeC {\"a}t\relax }}{9}}
\newlabel{code:enablejpaauditing}{{7}{9}}
\@writefile{lol}{\contentsline {listing}{\numberline {8}{\ignorespaces Automatische Erstellung der Tables\relax }}{9}}
\newlabel{code:jpa-config}{{8}{9}}
\@writefile{lol}{\contentsline {listing}{\numberline {9}{\ignorespaces JPA-Entities mit Audit-Annotations\relax }}{9}}
\newlabel{code:entities-audit}{{9}{9}}
\@writefile{toc}{\contentsline {subsubsection}{\numberline {3.1.4}Controller}{10}}
\@writefile{lol}{\contentsline {listing}{\numberline {10}{\ignorespaces SpringBootStarter\relax }}{10}}
\newlabel{code:spring-boot-starter}{{10}{10}}
\@writefile{lol}{\contentsline {listing}{\numberline {11}{\ignorespaces GameController\relax }}{10}}
\newlabel{code:game-controller}{{11}{10}}
\@writefile{toc}{\contentsline {subsubsection}{\numberline {3.1.5}SQL-Logging}{13}}
\@writefile{lol}{\contentsline {listing}{\numberline {12}{\ignorespaces Logging-Config f\IeC {\"u}r SpringBoot\relax }}{13}}
\newlabel{code:yml-logging}{{12}{13}}
\@writefile{lol}{\contentsline {listing}{\numberline {13}{\ignorespaces Generierte SQL-Queries f\IeC {\"u}r eine Instanz von Game mitsamt der (EAGER-)Dependencies\relax }}{14}}
\newlabel{code:generated-sql}{{13}{14}}
\@writefile{toc}{\contentsline {subsubsection}{\numberline {3.1.6}Test}{15}}
\@writefile{lof}{\contentsline {figure}{\numberline {3}{\ignorespaces Der TestCase entspricht dieser grafischen Ausgabe\relax }}{16}}
\@writefile{lol}{\contentsline {listing}{\numberline {14}{\ignorespaces Unit-Test\relax }}{16}}
\newlabel{code:text-4x4}{{14}{16}}
\@writefile{toc}{\contentsline {subsection}{\numberline {3.2}Python}{17}}
\@writefile{toc}{\contentsline {subsubsection}{\numberline {3.2.1}Entities}{17}}
\@writefile{lol}{\contentsline {listing}{\numberline {15}{\ignorespaces Entities\relax }}{17}}
\newlabel{code:python-entities}{{15}{17}}
\@writefile{toc}{\contentsline {subsubsection}{\numberline {3.2.2}Controller}{18}}
\@writefile{lol}{\contentsline {listing}{\numberline {16}{\ignorespaces Python Config\relax }}{18}}
\newlabel{code:python-main}{{16}{18}}
\@writefile{lol}{\contentsline {listing}{\numberline {17}{\ignorespaces Python ReST-Controller\relax }}{19}}
\newlabel{code:python-controller}{{17}{19}}
\@writefile{toc}{\contentsline {subsection}{\numberline {3.3}C\#}{21}}
\@writefile{toc}{\contentsline {subsubsection}{\numberline {3.3.1}Entities}{21}}
\@writefile{lol}{\contentsline {listing}{\numberline {18}{\ignorespaces Entities\relax }}{21}}
\newlabel{code:csharp-entities}{{18}{21}}
\@writefile{lol}{\contentsline {listing}{\numberline {19}{\ignorespaces Entity Relationships\relax }}{22}}
\newlabel{code:csharp-entity-config}{{19}{22}}
\@writefile{toc}{\contentsline {subsubsection}{\numberline {3.3.2}Controller}{23}}
\@writefile{lol}{\contentsline {listing}{\numberline {20}{\ignorespaces C\#-Controller\relax }}{23}}
\newlabel{code:csharp-controller}{{20}{23}}
\@writefile{toc}{\contentsline {section}{\numberline {4}GUI}{24}}
\@writefile{lol}{\contentsline {listing}{\numberline {21}{\ignorespaces Erstellen des React-Skeletons\relax }}{24}}
\newlabel{code:create-react-app}{{21}{24}}
\@writefile{lol}{\contentsline {listing}{\numberline {22}{\ignorespaces package.json f\IeC {\"u}r React-App\relax }}{24}}
\newlabel{code:package.json}{{22}{24}}
\@writefile{lof}{\contentsline {figure}{\numberline {4}{\ignorespaces Auflistung der aktives sowie beendeten Spiele sowie deren Ausgang\relax }}{26}}
\@writefile{lof}{\contentsline {figure}{\numberline {5}{\ignorespaces Erstellung eines Spiels unter Angabe von Feldgr\IeC {\"o}\IeC {\ss }e und Spielern\relax }}{26}}
\@writefile{lof}{\contentsline {figure}{\numberline {6}{\ignorespaces Aktives Spiel\relax }}{27}}
\@writefile{lof}{\contentsline {figure}{\numberline {7}{\ignorespaces Sieg\relax }}{28}}
\gdef\minted@oldcachelist{,
  default.pygstyle,
  colorful.pygstyle,
  default-pyg-prefix.pygstyle,
  3819795B91479C6BD372477DC2189F3187318ED3CFFB48AF6C56A5A6B7BE6F15.pygtex,
  666F441F6A7D037F2222B5A3954E95D499B76DF1C883F8A48C0E719C6E1DE978.pygtex,
  8EA69A387BDDB59A7BDA14D34AC8081DF72C89A81BA34B82DD460EC8877D6DBE.pygtex,
  CA704E694C81A125CB317C03A84BEE0D87318ED3CFFB48AF6C56A5A6B7BE6F15.pygtex,
  C1220D4D277E08CCB4D05A2CA95FFFED4481F399DE7F477505F3CEDC5B0502E1.pygtex,
  7B8E664805BBC7E1770F4AAB0327A5EF4481F399DE7F477505F3CEDC5B0502E1.pygtex,
  65877B7471CA40B9C65FD01560F7E72A4481F399DE7F477505F3CEDC5B0502E1.pygtex,
  D98BC46998520B997E867EE696BAE63E87318ED3CFFB48AF6C56A5A6B7BE6F15.pygtex,
  E4BCC57651CC810EE02249E66C37D1E74481F399DE7F477505F3CEDC5B0502E1.pygtex,
  B823317036966756ABEEB77ABE7ACB634481F399DE7F477505F3CEDC5B0502E1.pygtex,
  55E736BE937F7B91A4722E0AF43F6C8D4481F399DE7F477505F3CEDC5B0502E1.pygtex,
  078C217C174EEDFD8F0D9C75913D40C687318ED3CFFB48AF6C56A5A6B7BE6F15.pygtex,
  A5E88AF61DB710AB7EBC3A7BC7313C0199B76DF1C883F8A48C0E719C6E1DE978.pygtex,
  1E9645CC8EF893022001D5DC55D075D44481F399DE7F477505F3CEDC5B0502E1.pygtex,
  06687D98BBF2A6EA8B2F646FFAE1B3157BC9F1650E5147204109012551E408CD.pygtex,
  5219505C11585C3DAEB5E82E4E5103F57BC9F1650E5147204109012551E408CD.pygtex,
  1267BBBCB8E10F80879B23285A3158A17BC9F1650E5147204109012551E408CD.pygtex,
  1D9A9C7582B2F304A57ECE3F53F8C60AA5B0BE3AB72383C0FA0CDECAD3299389.pygtex,
  BEC0373931A025533EBA54752043FC25A5B0BE3AB72383C0FA0CDECAD3299389.pygtex,
  58B4D173941C9D1AEF68C4D32C425CBFA5B0BE3AB72383C0FA0CDECAD3299389.pygtex,
  DEDE1AB6996757D3EB9038ED342A71E070FE0CCBCA7C7A4F7275B8A6FDF84953.pygtex,
  C562231D269E75B91041A1CB515778A587318ED3CFFB48AF6C56A5A6B7BE6F15.pygtex}
\@writefile{lof}{\contentsline {figure}{\numberline {8}{\ignorespaces Untentschieden\relax }}{29}}
\newlabel{LastPage}{{}{30}}
\xdef\lastpage@lastpage{30}
\gdef\lastpage@lastpageHy{}
